---
http_interactions:
- request:
    method: get
    uri: https://pokeapi.co/api/v2/ability/?limit=50&offset=100
    body:
      encoding: US-ASCII
      string: ''
    headers:
      Accept-Encoding:
      - gzip;q=1.0,deflate;q=0.6,identity;q=0.3
      Accept:
      - "*/*"
      User-Agent:
      - Ruby
      Host:
      - pokeapi.co
  response:
    status:
      code: 200
      message: OK
    headers:
      Date:
      - Sat, 04 May 2019 05:17:59 GMT
      Content-Type:
      - application/json; charset=utf-8
      Content-Length:
      - '627'
      Connection:
      - keep-alive
      Set-Cookie:
      - __cfduid=d38b48e6485a0d39d252acd9fdf409c9f1556947079; expires=Sun, 03-May-20
        05:17:59 GMT; path=/; domain=.pokeapi.co; HttpOnly; Secure
      Access-Control-Allow-Origin:
      - "*"
      Cache-Control:
      - public, max-age=86400, s-maxage=86400
      Etag:
      - W/"df1-t5Z6DGzOi650K69jSJo/n0rPD1Y"
      Function-Execution-Id:
      - o05al4omiyvo
      X-Powered-By:
      - Express
      X-Cloud-Trace-Context:
      - bb31bfeefca0d6377a36b16953d828e6;o=1
      Via:
      - 1.1 varnish
      X-Served-By:
      - cache-bur17532-BUR
      X-Cache:
      - MISS
      X-Cache-Hits:
      - '0'
      X-Timer:
      - S1556946976.400309,VS0,VE368
      Vary:
      - accept-encoding, x-fh-requested-host, cookie, authorization
      Cf-Cache-Status:
      - HIT
      Accept-Ranges:
      - bytes
      Expect-Ct:
      - max-age=604800, report-uri="https://report-uri.cloudflare.com/cdn-cgi/beacon/expect-ct"
      Server:
      - cloudflare
      Cf-Ray:
      - 4d1802ed9fd4995f-LAX
    body:
      encoding: ASCII-8BIT
      string: '{"count":293,"next":"https://pokeapi.co/api/v2/ability/?offset=150&limit=50","previous":"https://pokeapi.co/api/v2/ability/?offset=50&limit=50","results":[{"name":"technician","url":"https://pokeapi.co/api/v2/ability/101/"},{"name":"leaf-guard","url":"https://pokeapi.co/api/v2/ability/102/"},{"name":"klutz","url":"https://pokeapi.co/api/v2/ability/103/"},{"name":"mold-breaker","url":"https://pokeapi.co/api/v2/ability/104/"},{"name":"super-luck","url":"https://pokeapi.co/api/v2/ability/105/"},{"name":"aftermath","url":"https://pokeapi.co/api/v2/ability/106/"},{"name":"anticipation","url":"https://pokeapi.co/api/v2/ability/107/"},{"name":"forewarn","url":"https://pokeapi.co/api/v2/ability/108/"},{"name":"unaware","url":"https://pokeapi.co/api/v2/ability/109/"},{"name":"tinted-lens","url":"https://pokeapi.co/api/v2/ability/110/"},{"name":"filter","url":"https://pokeapi.co/api/v2/ability/111/"},{"name":"slow-start","url":"https://pokeapi.co/api/v2/ability/112/"},{"name":"scrappy","url":"https://pokeapi.co/api/v2/ability/113/"},{"name":"storm-drain","url":"https://pokeapi.co/api/v2/ability/114/"},{"name":"ice-body","url":"https://pokeapi.co/api/v2/ability/115/"},{"name":"solid-rock","url":"https://pokeapi.co/api/v2/ability/116/"},{"name":"snow-warning","url":"https://pokeapi.co/api/v2/ability/117/"},{"name":"honey-gather","url":"https://pokeapi.co/api/v2/ability/118/"},{"name":"frisk","url":"https://pokeapi.co/api/v2/ability/119/"},{"name":"reckless","url":"https://pokeapi.co/api/v2/ability/120/"},{"name":"multitype","url":"https://pokeapi.co/api/v2/ability/121/"},{"name":"flower-gift","url":"https://pokeapi.co/api/v2/ability/122/"},{"name":"bad-dreams","url":"https://pokeapi.co/api/v2/ability/123/"},{"name":"pickpocket","url":"https://pokeapi.co/api/v2/ability/124/"},{"name":"sheer-force","url":"https://pokeapi.co/api/v2/ability/125/"},{"name":"contrary","url":"https://pokeapi.co/api/v2/ability/126/"},{"name":"unnerve","url":"https://pokeapi.co/api/v2/ability/127/"},{"name":"defiant","url":"https://pokeapi.co/api/v2/ability/128/"},{"name":"defeatist","url":"https://pokeapi.co/api/v2/ability/129/"},{"name":"cursed-body","url":"https://pokeapi.co/api/v2/ability/130/"},{"name":"healer","url":"https://pokeapi.co/api/v2/ability/131/"},{"name":"friend-guard","url":"https://pokeapi.co/api/v2/ability/132/"},{"name":"weak-armor","url":"https://pokeapi.co/api/v2/ability/133/"},{"name":"heavy-metal","url":"https://pokeapi.co/api/v2/ability/134/"},{"name":"light-metal","url":"https://pokeapi.co/api/v2/ability/135/"},{"name":"multiscale","url":"https://pokeapi.co/api/v2/ability/136/"},{"name":"toxic-boost","url":"https://pokeapi.co/api/v2/ability/137/"},{"name":"flare-boost","url":"https://pokeapi.co/api/v2/ability/138/"},{"name":"harvest","url":"https://pokeapi.co/api/v2/ability/139/"},{"name":"telepathy","url":"https://pokeapi.co/api/v2/ability/140/"},{"name":"moody","url":"https://pokeapi.co/api/v2/ability/141/"},{"name":"overcoat","url":"https://pokeapi.co/api/v2/ability/142/"},{"name":"poison-touch","url":"https://pokeapi.co/api/v2/ability/143/"},{"name":"regenerator","url":"https://pokeapi.co/api/v2/ability/144/"},{"name":"big-pecks","url":"https://pokeapi.co/api/v2/ability/145/"},{"name":"sand-rush","url":"https://pokeapi.co/api/v2/ability/146/"},{"name":"wonder-skin","url":"https://pokeapi.co/api/v2/ability/147/"},{"name":"analytic","url":"https://pokeapi.co/api/v2/ability/148/"},{"name":"illusion","url":"https://pokeapi.co/api/v2/ability/149/"},{"name":"imposter","url":"https://pokeapi.co/api/v2/ability/150/"}]}'
    http_version: 
  recorded_at: Sat, 04 May 2019 05:17:59 GMT
recorded_with: VCR 4.0.0
